{
    "swagger": "2.0",
    "info": {
        "version": "1.0.0",
        "title": "Product API",
        "description": "REST API for products"
    },
    "host": "localhost:3000",
    "basePath": "/",
    "tags": [
        {
            "name": "API",
            "description": "API for users in the system"
        }
    ],
    "schemes": [
        "http"
    ],
    "consumes": [
        "application/json"
    ],
    "produces": [
        "application/json"
    ],
    "paths": {
        "/usersInfo/create": {
            "post": {
                "tags": [
                    "UserInfo"
                ],
                "description": "Create new user in system",
                "parameters": [
                    {
                        "name": "user",
                        "in": "body",
                        "description": "User that we want to create",
                        "schema": {
                            "$ref": "#definitions/User"
                        }
                    }
                ],
                "produces": [
                    "application/json"
                ],
                "responses": {
                    "200": {
                        "description": "New user is created",
                        "schema": {
                            "$ref": "#definitions/User"
                        }
                    }
                }
            }
        },
        "/usersInfo/users": {
            "get": {
                "tags": [
                    "UserInfo"
                ],
                "summary": "Get all users in system",
                "responses": {
                    "200": {
                        "description": "OK",
                        "schema": {
                            "$ref": "#definitions/User"
                        }
                    }
                }
            }
        },
        "/usersInfo/createTecnico": {
            "post": {
                "tags": [
                    "UserInfo"
                ],
                "description": "Create new user in system",
                "parameters": [
                    {
                        "name": "tecnico",
                        "in": "body",
                        "description": "User that we want to create",
                        "schema": {
                            "$ref": "#definitions/User"
                        }
                    }
                ],
                "produces": [
                    "application/json"
                ],
                "responses": {
                    "200": {
                        "description": "New user is created",
                        "schema": {
                            "$ref": "#definitions/User"
                        }
                    }
                }
            }
        },
        "/usersInfo/user/{userId}": {
            "parameters": [
                {
                    "name": "userId",
                    "in": "path",
                    "required": true,
                    "description": "ID of user that we want to find",
                    "type": "string"
                }
            ],
            "get": {
                "tags": [
                    "UserInfo"
                ],
                "summary": "Get user with given ID",
                "responses": {
                    "200": {
                        "description": "User is found",
                        "schema": {
                            "$ref": "#definitions/User"
                        }
                    }
                }
            },
            "delete": {
                "summary": "Delete user with given ID",
                "tags": [
                    "UserInfo"
                ],
                "reponses": {
                    "200": {
                        "description": "Product is deleted",
                        "schema": {
                            "$ref": "#definitions/User"
                        }
                    }
                }
            },
            "put": {
                "summary": "Update user with given ID",
                "tags": [
                    "UserInfo"
                ],
                "parameters": [
                    {
                        "name": "user",
                        "in": "body",
                        "description": "User with new values of properties",
                        "schema": {
                            "$ref": "#definitions/User"
                        }
                    }
                ],
                "responses": {
                    "200": {
                        "description": "User is updated",
                        "schema": {
                            "$ref": "#definitions/User"
                        }
                    }
                }
            }
        },
        "/request/createRequest": {
            "post": {
                "tags": [
                    "Request"
                ],
                "description": "Create new request in system",
                "parameters": [
                    {
                        "name": "request",
                        "in": "body",
                        "description": "Request that we want to create",
                        "schema": {
                            "$ref": "#definitions/Request"
                        }
                    }
                ],
                "produces": [
                    "application/json"
                ],
                "responses": {
                    "200": {
                        "description": "New request is created",
                        "schema": {
                            "$ref": "#definitions/Request"
                        }
                    }
                }
            }
        },
        "/request/allrequests": {
            "get": {
                "tags": [
                    "Request"
                ],
                "summary": "Get all requests in system",
                "responses": {
                    "200": {
                        "description": "All requests",
                        "schema": {
                            "$ref": "#definitionse/Request"
                        }
                    }
                }
            }
        },
        "/request/onerequest/{:requestCode}": {
            "get": {
                "tags": [
                    "Request"
                ],
                "summary": "Get request with given Code",
                "responses": {
                    "200": {
                        "description": "Request is found",
                        "schema": {
                            "$ref": "#definitions/Request"
                        }
                    }
                }
            }
        },
        "/request/deleteRequest{:requestCode}": {
            "delete": {
                "summary": "Delete request with given Code",
                "tags": [
                    "Request"
                ],
                "reponses": {
                    "200": {
                        "description": "Request is deleted",
                        "schema": {
                            "$ref": "#definitions/Request"
                        }
                    }
                }
            }
        },
        "/request/acceptrequest/{:requestCode}": {
            "post": {
                "tags": [
                    "Request"
                ],
                "description": "Accept new request in system",
                "parameters": [
                    {
                        "name": "request",
                        "in": "body",
                        "description": "Request that we want to create",
                        "schema": {
                            "$ref": "#definitions/Request"
                        }
                    }
                ],
                "produces": [
                    "application/json"
                ],
                "responses": {
                    "200": {
                        "description": "New request is accept",
                        "schema": {
                            "$ref": "#definitions/Request"
                        }
                    }
                }
            }
        },
        "/request/deleteRequests/{:userId}": {
            "delete": {
                "summary": "Delete request with given ID",
                "tags": [
                    "Request"
                ],
                "reponses": {
                    "200": {
                        "description": "Request is deleted",
                        "schema": {
                            "$ref": "#definitions/Request"
                        }
                    }
                }
            }
        },
        "/tests/tests": {
            "get": {
                "tags": [
                    "Test"
                ],
                "summary": "Get all tests",
                "responses": {
                    "200": {
                        "description": "All tests",
                        "schema": {
                            "$ref": "#definitions/Test"
                        }
                    }
                }
            }
        },
        "/tests/createtest": {
            "post": {
                "tags": [
                    "Test"
                ],
                "description": "Create new test in system",
                "parameters": [
                    {
                        "name": "request",
                        "in": "body",
                        "description": "Test that we want to create",
                        "schema": {
                            "$ref": "#definitions/Test"
                        }
                    }
                ],
                "produces": [
                    "application/json"
                ],
                "responses": {
                    "200": {
                        "description": "New test is created",
                        "schema": {
                            "$ref": "#definitions/Test"
                        }
                    }
                }
            }
        },
        "/tests/updatetest/{:testCode}": {
            "put": {
                "summary": "Update test with given Code",
                "tags": [
                    "Test"
                ],
                "parameters": [
                    {
                        "name": "test",
                        "in": "body",
                        "description": "Test with new values of properties",
                        "schema": {
                            "$ref": "#definitions/Test"
                        }
                    }
                ],
                "responses": {
                    "200": {
                        "description": "Test is updated",
                        "schema": {
                            "$ref": "#definitions/Test"
                        }
                    }
                }
            }
        },
        "/tests/deletetest/{:testCode}": {
            "delete": {
                "summary": "Delete test with given Code",
                "tags": [
                    "Test"
                ],
                "reponses": {
                    "200": {
                        "description": "Test is deleted",
                        "schema": {
                            "$ref": "#definitions/Test"
                        }
                    }
                }
            }
        },
        "/tests/onetest/{:testCode}": {
            "get": {
                "tags": [
                    "Test"
                ],
                "summary": "Get test with given Code",
                "responses": {
                    "200": {
                        "description": "Test is found",
                        "schema": {
                            "$ref": "#definitions/Test"
                        }
                    }
                }
            }
        },
        "/tests/mytests": {
            "get": {
                "tags": [
                    "Test"
                ],
                "summary": "Get Tests",
                "responses": {
                    "200": {
                        "description": "Test is found",
                        "schema": {
                            "$ref": "#definitions/Test"
                        }
                    }
                }
            }
        },
        "/tests/usertests": {
            "get": {
                "tags": [
                    "Test"
                ],
                "summary": "Get tests drom users",
                "responses": {
                    "200": {
                        "description": "Test is found",
                        "schema": {
                            "$ref": "#definitions/Test"
                        }
                    }
                }
            }
        }
    },
    "definitions": {
        "User": {
            "required": [
                "role",
                "email",
                "password",
                "name",
                "address",
                "sex",
                "age",
                "contact",
                "disseases"
            ],
            "properties": {
                "name": {
                    "type": "string",
                    "require": true,
                    "uniqueItems": true
                },
                "sex": {
                    "type": "string"
                },
                "age": {
                    "type": "number"
                },
                "role": {
                    "type": "number"
                },
                "contact": {
                    "type": "number"
                },
                "password": {
                    "type": "string"
                },
                "email": {
                    "type": "string",
                    "uniqueItems": true
                },
                "diseases": {
                    "type": "string"
                },
                "address": {
                    "type": "string"
                },
                "status": {
                    "type":"number",
                    "min": 0,
                    "max": 2,
                    "default":1
                }
            }
        },
        "Test": {
            "required": [
                "date",
                "client",
                "technician",
                "userId"
            ],
            "properties": {
                "date": {
                    "type": "Date",
                    "uniqueItems": true
                },
                "client": {
                    "type": "string",
                    "uniqueItems": true
                },
                "techician": {
                    "type": "string",
                    "uniqueItems": true
                },
                "code": {
                    "type": "string",
                    "uniqueItems": true
                },
                "utilstatus": {
                    "type": "string"
                },
                "teststatus": {
                    "type": "string"
                },
                "result": {
                    "type": "string"
                },
                "userId": {
                    "type":"string",
                    "uniqueItems":true
                }
            }
        },
        "Request": {
            "require": [
                "description",
                "priority"
            ],
            "properties": {
                "name": {
                    "type": "string"
                },
                "time": {
                    "type": "Date",
                    "default": "Date.now"
                },
                "code": {
                    "type": "string",
                    "uniqueItems": true
                },
                "userid": {
                    "type": "string",
                    "uniqueItems": true
                },
                "description": {
                    "type": "string"
                },
                "priority": {
                    "type": "number",
                    "min": 0,
                    "max": 5
                }
            }
        }
    }
}